%YAML 1.1
%TAG !u! tag:unity3d.com,2011:
--- !u!114 &11400000
MonoBehaviour:
  m_ObjectHideFlags: 0
  m_PrefabParentObject: {fileID: 0}
  m_PrefabInternal: {fileID: 0}
  m_GameObject: {fileID: 0}
  m_Enabled: 1
  m_EditorHideFlags: 0
  m_Script: {fileID: 11500000, guid: d874f444673493646a2c54a69f43973c, type: 3}
  m_Name: TEM_Kill Choise 2
  m_EditorClassIdentifier: 
  herosJourneyType: 0
  abstractRelationConditions:
  - relation: {fileID: 11400000, guid: ba22c7b3b6d5b2e49802d7cf0ed2c285, type: 2}
    dataType: 4
    dataName: targetA
    SpecifiedData: {fileID: 0}
  - relation: {fileID: 11400000, guid: 26c047483930c98489cdabfc3cea4bb1, type: 2}
    dataType: 4
    dataName: targetB
    SpecifiedData: {fileID: 0}
  OnStartMessageQueueNum: 1
  OnEndMessageQueueNum: 1
  OnStartMessageQueue:
  - message: "one last request from me...\r\n"
    dataNameNo: 0
    dataName: targetA
  OnEndMessageQueue:
  - message: 
    dataNameNo: 0
    dataName: targetA
  Quest:
    goalObjectiveNum: 2
    goalObjective:
    - targetNo: 0
      target: targetA
      type: 0
      MessageQueueNum: 0
      MessageQueue: []
    - targetNo: 0
      target: targetA
      type: 0
      MessageQueueNum: 0
      MessageQueue: []
