%YAML 1.1
%TAG !u! tag:unity3d.com,2011:
--- !u!114 &11400000
MonoBehaviour:
  m_ObjectHideFlags: 0
  m_PrefabParentObject: {fileID: 0}
  m_PrefabInternal: {fileID: 0}
  m_GameObject: {fileID: 0}
  m_Enabled: 1
  m_EditorHideFlags: 0
  m_Script: {fileID: 11500000, guid: d874f444673493646a2c54a69f43973c, type: 3}
  m_Name: T_Trial kill
  m_EditorClassIdentifier: 
  herosJourneyType: 0
  abstractRelationConditions:
  - firstPartyDataName: 
    firstPartyDataType: 0
    firstPartySpecifiedData: {fileID: 0}
    relation: 0
    secondPartyDataName: 
    secondPartyDataType: 0
    secondPartySpecifiedData: {fileID: 0}
  OnStartMessageQueueNum: 1
  OnEndMessageQueueNum: 0
  OnStartMessageQueue:
  - message: '{1} is the next target on your trail.'
    dataNameNo: 0
    dataName: '#QuestGiver#'
  OnEndMessageQueue: []
  Quest:
    goalObjectiveNum: 1
    goalObjective:
    - targetNo: 0
      target: '#QuestGiver#'
      type: 0
      MessageQueueNum: 1
      MessageQueue:
      - message: I'll never forgive you...
        dataNameNo: 0
        dataName: '#QuestGiver#'
