%YAML 1.1
%TAG !u! tag:unity3d.com,2011:
--- !u!114 &11400000
MonoBehaviour:
  m_ObjectHideFlags: 0
  m_PrefabParentObject: {fileID: 0}
  m_PrefabInternal: {fileID: 0}
  m_GameObject: {fileID: 0}
  m_Enabled: 0
  m_EditorHideFlags: 0
  m_Script: {fileID: 11500000, guid: a6f27c4b7cbc98149ba8701fc69c12e9, type: 3}
  m_Name: Player
  m_EditorClassIdentifier: 
  icon: {fileID: 21300000, guid: 3fba453721ab0a649897c44e2b670b1b, type: 3}
  baselistOfTraits:
  - {fileID: 11400000, guid: d58dcc562644125458894afd578dce54, type: 2}
  firstName: ' '
  middleName: ' '
  lastName: ' '
  age: 0
  baceHealth: 0
  looks:
    entityModel: {fileID: 100002, guid: 6339a86945bdb754ab8a8a71bb5d722f, type: 3}
    attackEffect: {fileID: 1772957612974814, guid: e7550a1d6d4cdf34c8dab46551573ce4,
      type: 2}
    Icon: {fileID: 0}
    animator: {fileID: 9100000, guid: fbec72417b6e95d42a84091179a394e8, type: 2}
  attackArc: 180
  attackRange: 2
  defaultTalkToMessage: []
  attackType: 1
  baseRelations: []
  ExudeFromGenoration: 0
