%YAML 1.1
%TAG !u! tag:unity3d.com,2011:
--- !u!114 &11400000
MonoBehaviour:
  m_ObjectHideFlags: 0
  m_PrefabParentObject: {fileID: 0}
  m_PrefabInternal: {fileID: 0}
  m_GameObject: {fileID: 0}
  m_Enabled: 1
  m_EditorHideFlags: 0
  m_Script: {fileID: 11500000, guid: d874f444673493646a2c54a69f43973c, type: 3}
  m_Name: CTT_Kill Monster 2
  m_EditorClassIdentifier: 
  herosJourneyType: 0
  abstractRelationConditions:
  - relation: {fileID: 11400000, guid: 26c047483930c98489cdabfc3cea4bb1, type: 2}
    dataType: 5
    dataName: a
    SpecifiedData: {fileID: 11400000, guid: c0be54b96da90724ea8cd5fb8ee0933f, type: 2}
  OnStartMessageQueueNum: 2
  OnEndMessageQueueNum: 1
  OnStartMessageQueue:
  - message: Your quest is only just begining.
    dataNameNo: 0
    dataName: Monster
  - message: A {2} is fill with evil intent must be stoped, please takeout {1}.
    dataNameNo: 0
    dataName: Monster
  OnEndMessageQueue:
  - message: Nooooo!
    dataNameNo: 0
    dataName: Monster
  Quest:
    goalObjectiveNum: 1
    goalObjective:
    - targetNo: 0
      target: Monster
      type: 0
      MessageQueueNum: 1
      MessageQueue:
      - message: Haha trying to kill me?!
        dataNameNo: 0
        dataName: Monster
