%YAML 1.1
%TAG !u! tag:unity3d.com,2011:
--- !u!114 &11400000
MonoBehaviour:
  m_ObjectHideFlags: 0
  m_PrefabParentObject: {fileID: 0}
  m_PrefabInternal: {fileID: 0}
  m_GameObject: {fileID: 0}
  m_Enabled: 1
  m_EditorHideFlags: 0
  m_Script: {fileID: 11500000, guid: a6f27c4b7cbc98149ba8701fc69c12e9, type: 3}
  m_Name: Human Francesco
  m_EditorClassIdentifier: 
  icon: {fileID: 0}
  baselistOfTraits:
  - {fileID: 11400000, guid: d58dcc562644125458894afd578dce54, type: 2}
  firstName: "Francesco\r"
  middleName: 
  lastName: "Dian\r"
  age: 42
  baceHealth: 0
  looks:
    entityModel: {fileID: 100002, guid: 78d899a302143cb48b50ee082ebfa07d, type: 3}
    attackEffect: {fileID: 1772957612974814, guid: e7550a1d6d4cdf34c8dab46551573ce4,
      type: 2}
    Icon: {fileID: 0}
    animator: {fileID: 9100000, guid: fbec72417b6e95d42a84091179a394e8, type: 2}
  attackArc: 180
  attackRange: 2
  defaultTalkToMessage:
  - MessageString: Hey, hows it hanging.
    target: {fileID: 0}
    options:
    - optionMessage: Got A job?
    - optionMessage: End
  attackType: 1
  baseRelations:
  - gRelationStrength: -51
    trait: {fileID: 11400000, guid: f002e4e6d258f5943a173acfd4252f04, type: 2}
  - gRelationStrength: 20
    trait: {fileID: 11400000, guid: ab862cb1e215085489c151ee13dffe31, type: 2}
  - gRelationStrength: 82
    trait: {fileID: 11400000, guid: ba7eb65e847555643a2aa9e8752d8289, type: 2}
  - gRelationStrength: 14
    trait: {fileID: 11400000, guid: 6cc168b696ddc3f40aaee0b1028a656d, type: 2}
  - gRelationStrength: -245
    trait: {fileID: 11400000, guid: 5efd931c67f85de44898dc11117dbcaa, type: 2}
  - gRelationStrength: -28
    trait: {fileID: 11400000}
  - gRelationStrength: 105
    trait: {fileID: 11400000, guid: 197ad8c32b4f4b942aa3490debd5157c, type: 2}
  - gRelationStrength: 27
    trait: {fileID: 11400000, guid: 44f2ce1183d70ae419f6324017f4e8e8, type: 2}
  - gRelationStrength: -73
    trait: {fileID: 11400000, guid: d9efe4812b8ab7e4e93edc48a13dc3bf, type: 2}
  ExudeFromGenoration: 0
