%YAML 1.1
%TAG !u! tag:unity3d.com,2011:
--- !u!114 &11400000
MonoBehaviour:
  m_ObjectHideFlags: 0
  m_PrefabParentObject: {fileID: 0}
  m_PrefabInternal: {fileID: 0}
  m_GameObject: {fileID: 0}
  m_Enabled: 1
  m_EditorHideFlags: 0
  m_Script: {fileID: 11500000, guid: 99aab56ac466f594aba61fed52c3e6ea, type: 3}
  m_Name: Healthy
  m_EditorClassIdentifier: 
  listOfTraits: []
  superiorTrait: {fileID: 0}
  inferiorTrait: {fileID: 0}
  Modifiers:
  - {fileID: 11400000, guid: 7dab9fce22249a949bf13cb06c1ebd11, type: 2}
  oppositeTrait: []
