%YAML 1.1
%TAG !u! tag:unity3d.com,2011:
--- !u!114 &11400000
MonoBehaviour:
  m_ObjectHideFlags: 0
  m_PrefabParentObject: {fileID: 0}
  m_PrefabInternal: {fileID: 0}
  m_GameObject: {fileID: 0}
  m_Enabled: 1
  m_EditorHideFlags: 0
  m_Script: {fileID: 11500000, guid: 5e71ee90c975f3d4cb163a2a38b64d72, type: 3}
  m_Name: AblazeModifier
  m_EditorClassIdentifier: 
  icon: {fileID: 21300000, guid: fe5f8548737aad543943efa44ff09ff6, type: 3}
  description: 
  soundEffect: {fileID: 0}
  effect: {fileID: 1885499158405080, guid: cdfa078ef65b3d14a98592dd2a4429ba, type: 2}
  source: {fileID: 0}
  DamageAmount: 10
  rate: 0.1
