%YAML 1.1
%TAG !u! tag:unity3d.com,2011:
--- !u!114 &11400000
MonoBehaviour:
  m_ObjectHideFlags: 0
  m_PrefabParentObject: {fileID: 0}
  m_PrefabInternal: {fileID: 0}
  m_GameObject: {fileID: 0}
  m_Enabled: 1
  m_EditorHideFlags: 0
  m_Script: {fileID: 11500000, guid: eb501ba045c3bcf4b9a94d28fcf6e119, type: 3}
  m_Name: Daemon
  m_EditorClassIdentifier: 
  icon: {fileID: 0}
  baselistOfTraits:
  - {fileID: 11400000, guid: ea0403e6680d9c54f876ad9d239d53d5, type: 2}
  superiorTrait: {fileID: 0}
  inferiorTrait: {fileID: 0}
  Modifiers:
  - {fileID: 11400000, guid: a2dc31f60d0fa2d4cad747272f53bc05, type: 2}
  LifeTime: 0
  blockTrait: []
