%YAML 1.1
%TAG !u! tag:unity3d.com,2011:
--- !u!114 &11400000
MonoBehaviour:
  m_ObjectHideFlags: 0
  m_PrefabParentObject: {fileID: 0}
  m_PrefabInternal: {fileID: 0}
  m_GameObject: {fileID: 0}
  m_Enabled: 1
  m_EditorHideFlags: 0
  m_Script: {fileID: 11500000, guid: 648771367ad5efc4fa0870a77c1b7c94, type: 3}
  m_Name: Attack mod3
  m_EditorClassIdentifier: 
  abstractRelationConditions:
  - firstPartyDataType: 3
    firstPartyDataName: '#'
    firstPartySpecifiedData: {fileID: 0}
    relation: 0
    secondPartyDataType: 3
    secondPartyDataName: Victim
    secondPartySpecifiedData: {fileID: 0}
  - firstPartyDataType: 3
    firstPartyDataName: Lover
    firstPartySpecifiedData: {fileID: 0}
    relation: 4
    secondPartyDataType: 3
    secondPartyDataName: Victim
    secondPartySpecifiedData: {fileID: 0}
  leftProductionRules:
    GrathNodes:
    - name: Kill Quest
      ruleID: 1
    - name: End
      ruleID: 2
    GrathEdges:
    - source: 1
      target: 2
      objectiveConstructor:
        goalObjectiveNum: 0
        goalObjective:
          targetNo: 0
          target: Victim
          type: 0
          MessageQueueNum: 0
          displayMessageAt: -1
          MessageQueue: []
  rightProductionRules:
    GrathNodes:
    - name: Kill Quest
      ruleID: 1
    - name: 'Revenge '
      ruleID: 2
    - name: Retaliation
      ruleID: -1
    - name: End
      ruleID: -1
    - name: End
      ruleID: -1
    GrathEdges:
    - source: 1
      target: 3
      objectiveConstructor:
        goalObjectiveNum: 0
        goalObjective:
          targetNo: 0
          target: Victim
          type: 1
          MessageQueueNum: 1
          displayMessageAt: 0
          MessageQueue:
          - message: Hello
            dataNameNo: 0
            dataName: Victim
    - source: 1
      target: 2
      objectiveConstructor:
        goalObjectiveNum: 0
        goalObjective:
          targetNo: 0
          target: Victim
          type: 0
          MessageQueueNum: 1
          displayMessageAt: 0
          MessageQueue:
          - message: Hello
            dataNameNo: 0
            dataName: Victim
    - source: 2
      target: 5
      objectiveConstructor:
        goalObjectiveNum: 0
        goalObjective:
          targetNo: 3
          target: Lover
          type: 2
          MessageQueueNum: 1
          displayMessageAt: 0
          MessageQueue:
          - message: You did this!
            dataNameNo: 0
            dataName: Victim
    - source: 3
      target: 4
      objectiveConstructor:
        goalObjectiveNum: 0
        goalObjective:
          targetNo: 1
          target: '#'
          type: 2
          MessageQueueNum: 1
          displayMessageAt: 0
          MessageQueue:
          - message: Hello
            dataNameNo: 0
            dataName: Victim
  OnStartMessageQueueNum: 0
  OnEndMessageQueueNum: 0
  OnStartMessageQueue: []
  OnEndMessageQueue: []
